[gd_scene load_steps=6 format=2]

[ext_resource path="res://scripts/terrain/World.gd" type="Script" id=2]
[ext_resource path="res://assets/maujoe.camera_control/scripts/camera_control.gd" type="Script" id=3]
[ext_resource path="res://scripts/terrain/ChunkLoader.gd" type="Script" id=4]

[sub_resource type="PlaneMesh" id=1]

[sub_resource type="SpatialMaterial" id=2]
albedo_color = Color( 0.0901961, 0.294118, 0.2, 1 )

[node name="World" type="Spatial"]
script = ExtResource( 2 )

[node name="Camera" type="Camera" parent="."]
transform = Transform( -0.866026, -0.25, 0.433013, 0, 0.866025, 0.5, -0.5, 0.433013, -0.75, 10.8403, 10.7874, -5.99979 )
script = ExtResource( 3 )
max_speed = Vector3( 20, 20, 20 )

[node name="Plane" type="MeshInstance" parent="."]
transform = Transform( 32.8562, 0, 0, 0, 1, 0, 0, 0, 32.8562, 0, 0, 0 )
mesh = SubResource( 1 )
material/0 = SubResource( 2 )

[node name="Chunks" type="MeshInstance" parent="."]
script = ExtResource( 4 )
sidelength = 16.0
